:0200000460207A
:10000000FFFFFFEAFFFFFFEA02D1A0E3FFFFFFEBE4
:1000100030482DE90CB08DE2B03F10EE0340A0E176
:10002000034004E2000054E30100000A0E0000EB6C
:10003000050000EA060000EB0430A0E10010A0E398
:100040000300A0E10F0000EB070000EB0000A0E1BF
:100050003088BDE804B02DE500B08DE20000A0E1DD
:1000600000D04BE204B09DE41EFF2FE104B02DE56B
:1000700000B08DE2FEFFFFEA00482DE904B08DE2FA
:10008000000000EBFEFFFFEA04B02DE500B08DE2BA
:1000900014D04DE20239A0E3003042E308300BE512
:1000A000203008E3003042E30C300BE5403008E339
:1000B000003042E310300BE508201BE5013AA0E3D5
:1000C000003041E3003082E508201BE50139A0E360
:1000D000003044E3003082E508201BE50239A0E34C
:1000E000003048E3003082E50C301BE50122A0E33C
:1000F000002083E50C301BE50121A0E3002083E50F
:100100000C301BE50221A0E3002083E510201BE555
:10011000013AA0E3003041E3003082E510201BE506
:100120000139A0E3003044E3003082E510201BE5F4
:100130000239A0E3003048E3003082E5FEFFFFEA29
:1001400004B02DE500B08DE20000A0E1FDFFFFEA64
:0400000560200078FF
:00000001FF
